#Command: "C:\Program Files (x86)\Microsoft Visual Studio\2019\Professional\VC\Tools\MSVC\14.24.28314\bin\HostX86\x86\link.exe" /ERRORREPORT:PROMPT @C:\Users\dev1\AppData\Local\Temp\tmp92bc5632328443c29a143ac717dea9db.rsp /nologo /incremental /fullbuild
^C:\USERS\DEV1\SOURCE\REPOS\REPORTER\REPORTER\DEBUG\BBPR.OBJ|C:\USERS\DEV1\SOURCE\REPOS\REPORTER\REPORTER\DEBUG\DLLMAIN.OBJ|C:\USERS\DEV1\SOURCE\REPOS\REPORTER\REPORTER\DEBUG\FFT.OBJ|C:\USERS\DEV1\SOURCE\REPOS\REPORTER\REPORTER\DEBUG\FITCREATOR.OBJ|C:\USERS\DEV1\SOURCE\REPOS\REPORTER\REPORTER\DEBUG\OPERATOROVERLOAD.OBJ|C:\USERS\DEV1\SOURCE\REPOS\REPORTER\REPORTER\DEBUG\REPORTER.OBJ|C:\USERS\DEV1\SOURCE\REPOS\REPORTER\REPORTER\DEBUG\STDAFX.OBJ
C:\USERS\DEV1\APPDATA\LOCAL\TEMP\LNK{F47384A3-7026-4E98-82A7-5C08191B321F}.TMP
