^C:\USERS\DEV1\SOURCE\REPOS\REPORTER\EXAMPLE\PCH.CPP
/c /IC:\USERS\DEV1\SOURCE\REPOS\REPORTER\/REPORTER /I"D:\VCPKG-MASTER\VCPKG-MASTER\INSTALLED\X86-WINDOWS\INCLUDE" /ZI /JMC /nologo /W1 /WX- /diagnostics:column /sdl /Od /Oy- /D WIN32 /D _DEBUG /D _CONSOLE /D _UNICODE /D UNICODE /Gm- /EHsc /RTC1 /MDd /GS /fp:precise /permissive- /Zc:wchar_t /Zc:forScope /Zc:inline /Yc"pch.h" /Fp"DEBUG\EXAMPLE.PCH" /Fo"DEBUG\\" /Fd"DEBUG\VC142.PDB" /Gd /TP /analyze- /FC C:\USERS\DEV1\SOURCE\REPOS\REPORTER\EXAMPLE\PCH.CPP
^C:\USERS\DEV1\SOURCE\REPOS\REPORTER\EXAMPLE\EXAMPLE.CPP
/c /IC:\USERS\DEV1\SOURCE\REPOS\REPORTER\/REPORTER /I"D:\VCPKG-MASTER\VCPKG-MASTER\INSTALLED\X86-WINDOWS\INCLUDE" /ZI /JMC /nologo /W1 /WX- /diagnostics:column /sdl /Od /Oy- /D WIN32 /D _DEBUG /D _CONSOLE /D _UNICODE /D UNICODE /Gm- /EHsc /RTC1 /MDd /GS /fp:precise /permissive- /Zc:wchar_t /Zc:forScope /Zc:inline /Yu"pch.h" /Fp"DEBUG\EXAMPLE.PCH" /Fo"DEBUG\\" /Fd"DEBUG\VC142.PDB" /Gd /TP /analyze- /FC C:\USERS\DEV1\SOURCE\REPOS\REPORTER\EXAMPLE\EXAMPLE.CPP
